<svg width="27" height="27" viewBox="0 0 27 27" fill="none" xmlns="http://www.w3.org/2000/svg">
<path d="M18 14.1667L13.5 18M13.5 18L9 14.1667M13.5 18L13.5 9" stroke="#B8C1CF" stroke-linecap="round" stroke-linejoin="round"/>
<circle cx="13.5" cy="13.5" r="13" stroke="#B8C1CF"/>
</svg>
