<svg width="60" height="60" viewBox="0 0 60 60" fill="none" xmlns="http://www.w3.org/2000/svg">
<circle cx="30" cy="30" r="30" fill="#11CB87"/>
<path d="M26.5306 39.6039C27.0018 40.1265 27.8182 40.1335 28.2929 39.6039L41.8578 24.5749C42.3437 24.0371 42.3437 23.1629 41.8578 22.6251C41.3719 22.0859 40.5826 22.0859 40.0967 22.6251L27.4062 36.682L22.1265 30.896C21.6405 30.3568 20.8513 30.3568 20.3654 30.896C19.8782 31.4352 19.8782 32.308 20.3654 32.8458L26.5306 39.6039Z" fill="white"/>
</svg>
