<svg width="25" height="25" viewBox="0 0 25 25" fill="none" xmlns="http://www.w3.org/2000/svg">
<path d="M12.5 0C5.60769 0 0 5.60721 0 12.5C0 19.3928 5.60769 25 12.5 25C19.3923 25 25 19.3928 25 12.5C25 5.60721 19.3923 0 12.5 0ZM12.5 24.0385C6.13798 24.0385 0.961538 18.862 0.961538 12.5C0.961538 6.13798 6.13798 0.961538 12.5 0.961538C18.862 0.961538 24.0385 6.13798 24.0385 12.5C24.0385 18.862 18.862 24.0385 12.5 24.0385Z" fill="#EB5757"/>
<path d="M17.1668 7.83239C16.9788 7.64441 16.6749 7.64441 16.487 7.83239L12.5 11.8194L8.51293 7.83239C8.32495 7.64441 8.0211 7.64441 7.83312 7.83239C7.64514 8.02037 7.64514 8.32422 7.83312 8.5122L11.8201 12.4992L7.83312 16.4862C7.64514 16.6742 7.64514 16.9781 7.83312 17.166C7.92687 17.2598 8.04995 17.3069 8.17303 17.3069C8.29611 17.3069 8.41918 17.2598 8.51293 17.166L12.5 13.179L16.487 17.166C16.5807 17.2598 16.7038 17.3069 16.8269 17.3069C16.9499 17.3069 17.073 17.2598 17.1668 17.166C17.3548 16.9781 17.3548 16.6742 17.1668 16.4862L13.1798 12.4992L17.1668 8.5122C17.3548 8.32422 17.3548 8.02037 17.1668 7.83239Z" fill="#EB5757"/>
</svg>
