<svg width="25" height="24" viewBox="0 0 25 24" fill="none" xmlns="http://www.w3.org/2000/svg">
<path d="M20.7402 6.45263L14.4265 0.138938C14.3375 0.0499687 14.2169 0 14.091 0H5.19448C4.11406 0 3.23511 0.878953 3.23511 1.95937V22.0406C3.23511 23.121 4.11406 24 5.19448 24H18.9197C20.0001 24 20.879 23.121 20.879 22.0406V6.78802C20.879 6.66225 20.8291 6.54155 20.7402 6.45263ZM14.5654 1.61948L19.2596 6.31359H15.5761C15.0188 6.31359 14.5654 5.86022 14.5654 5.30288V1.61948H14.5654ZM19.9304 22.0406C19.9304 22.5979 19.477 23.0513 18.9197 23.0513H5.19448C4.63719 23.0513 4.18376 22.5979 4.18376 22.0406V1.95937C4.18376 1.40208 4.63719 0.948656 5.19448 0.948656H13.6167V5.30297C13.6167 6.38339 14.4956 7.26234 15.576 7.26234H19.9304V22.0406Z" fill="white"/>
<path d="M15.8514 12.0469H8.26241C8.00048 12.0469 7.78809 12.2593 7.78809 12.5212C7.78809 12.7831 8.00048 12.9955 8.26241 12.9955H15.8514C16.1134 12.9955 16.3257 12.7831 16.3257 12.5212C16.3257 12.2593 16.1134 12.0469 15.8514 12.0469Z" fill="white"/>
<path d="M15.8514 14.166H8.26241C8.00048 14.166 7.78809 14.3784 7.78809 14.6403C7.78809 14.9023 8.00048 15.1147 8.26241 15.1147H15.8514C16.1134 15.1147 16.3257 14.9023 16.3257 14.6403C16.3257 14.3784 16.1134 14.166 15.8514 14.166Z" fill="white"/>
<path d="M15.8514 16.2852H8.26241C8.00048 16.2852 7.78809 16.4975 7.78809 16.7595C7.78809 17.0214 8.00048 17.2338 8.26241 17.2338H15.8514C16.1134 17.2338 16.3257 17.0214 16.3257 16.7595C16.3257 16.4975 16.1134 16.2852 15.8514 16.2852Z" fill="white"/>
<path d="M15.8515 18.4023H10.729C10.467 18.4023 10.2546 18.6147 10.2546 18.8767C10.2546 19.1386 10.467 19.351 10.729 19.351H15.8515C16.1135 19.351 16.3258 19.1386 16.3258 18.8767C16.3258 18.6147 16.1135 18.4023 15.8515 18.4023Z" fill="white"/>
</svg>
