<svg width="25" height="25" viewBox="0 0 25 25" fill="none" xmlns="http://www.w3.org/2000/svg">
<circle cx="12.5" cy="12.5" r="12" stroke="#16355E"/>
<g clip-path="url(#clip0)">
<path d="M16.7181 19.4436C16.1403 19.4436 15.4423 19.2987 14.6748 19.0091C12.9921 18.3747 11.1614 17.1209 9.51979 15.4793C7.87775 13.8373 6.62391 12.006 5.98906 10.3234C5.41212 8.79343 5.41072 7.53773 5.98579 6.96313C6.06847 6.88045 6.15256 6.79169 6.23945 6.70012C6.76406 6.14842 7.35688 5.52757 8.14262 5.5556C8.68405 5.57803 9.20866 5.91438 9.74589 6.58287C11.3333 8.55705 10.6176 9.26058 9.78933 10.0762L9.64312 10.221C9.50764 10.3565 9.25164 10.9839 11.6332 13.3654C12.4105 14.1428 13.0734 14.7118 13.6032 15.0561C13.9367 15.2728 14.5333 15.6008 14.778 15.356L14.9252 15.2074C15.7399 14.381 16.4434 13.6677 18.4162 15.2537C19.0847 15.7909 19.4206 16.315 19.443 16.8574C19.4753 17.6427 18.8497 18.2369 18.2976 18.7611C18.2065 18.8479 18.1177 18.932 18.035 19.0142C17.7496 19.3001 17.2932 19.4436 16.7181 19.4436ZM8.08657 6.02182C7.52832 6.02182 7.02426 6.5525 6.57813 7.02199C6.48844 7.11636 6.40155 7.20792 6.31606 7.29341C5.88768 7.72132 5.93113 8.84575 6.42631 10.1589C7.03828 11.7809 8.25427 13.5532 9.85053 15.1495C11.4463 16.7448 13.2178 17.9608 14.8402 18.5723C16.1533 19.0684 17.2778 19.1105 17.7052 18.683C17.7907 18.5975 17.8823 18.5107 17.9766 18.4214C18.4564 17.9655 19.0006 17.4488 18.9768 16.8756C18.9605 16.4818 18.6736 16.0581 18.1243 15.6167C16.4803 14.2946 16.0207 14.7613 15.2583 15.5344L15.1088 15.6853C14.7444 16.0502 14.1525 15.9694 13.349 15.4471C12.7917 15.0846 12.1031 14.495 11.3034 13.6948C9.32685 11.7187 8.6948 10.5093 9.31331 9.88937L9.46233 9.74222C10.2373 8.97983 10.705 8.51968 9.38245 6.87484C8.94005 6.32594 8.51681 6.03911 8.123 6.02229C8.11086 6.02182 8.09871 6.02182 8.08657 6.02182Z" fill="#16355E"/>
</g>
<defs>
<clipPath id="clip0">
<rect width="13.8889" height="13.8889" fill="white" transform="translate(5.55566 5.55469)"/>
</clipPath>
</defs>
</svg>
