<svg width="41" height="41" viewBox="0 0 41 41" fill="none" xmlns="http://www.w3.org/2000/svg">
<g clip-path="url(#clip0)">
<path d="M25.205 9.007C24.776 8.563 24.062 8.563 23.618 9.007C23.189 9.436 23.189 10.15 23.618 10.578L31.665 18.625H5.111C4.492 18.626 4 19.118 4 19.737C4 20.356 4.492 20.864 5.111 20.864H31.665L23.618 28.896C23.189 29.34 23.189 30.055 23.618 30.483C24.062 30.927 24.777 30.927 25.205 30.483L35.157 20.531C35.601 20.102 35.601 19.388 35.157 18.96L25.205 9.007Z" fill="#323945"/>
</g>
<defs>
<clipPath id="clip0">
<rect width="31.49" height="31.49" fill="white" transform="translate(4 4)"/>
</clipPath>
</defs>
</svg>
