<svg width="41" height="41" viewBox="0 0 41 41" fill="none" xmlns="http://www.w3.org/2000/svg">
<path fill-rule="evenodd" clip-rule="evenodd" d="M10.1694 10.217C10.1521 10.2146 10.1347 10.2121 10.1171 10.2121C8.94942 10.2121 8 11.1616 8 12.3292C8 12.886 8.22574 13.4315 8.61998 13.8257V13.8263L10.2121 15.4181V24.5909C10.2121 25.811 11.2047 26.8031 12.4242 26.8031H28.2331L33.6014 32.1714C33.7073 32.2772 33.8488 32.3334 33.9925 32.3334C34.0638 32.3334 34.1361 32.3198 34.2042 32.2912C34.4105 32.2059 34.5455 32.0039 34.5455 31.7803V10.2121C34.5455 8.99214 33.5528 8 32.3333 8H12.4242C11.2047 8 10.2121 8.99214 10.2121 10.2121V10.2217C10.1978 10.221 10.1836 10.219 10.1694 10.217ZM12.4242 25.697C11.814 25.697 11.3182 25.2006 11.3182 24.5909V16.524L15.3525 20.5577C15.4292 20.635 15.5275 20.6873 15.6354 20.709L18.3995 21.262C18.4352 21.269 18.4719 21.2728 18.5075 21.2728C18.6523 21.2728 18.7938 21.2155 18.8986 21.1108C19.0293 20.9801 19.0865 20.7927 19.0498 20.6112L18.5187 17.9546H28.4621C28.7678 17.9546 29.0152 17.7072 29.0152 17.4016C29.0152 17.0959 28.7678 16.8485 28.4621 16.8485H17.6314L11.6141 10.8321C11.5236 10.7414 11.4232 10.6621 11.3182 10.5899V10.2121C11.3182 9.60242 11.8139 9.1061 12.4243 9.1061H32.3334C32.9436 9.1061 33.4394 9.60242 33.4394 10.2121V30.4453L28.8532 25.859C28.7495 25.7553 28.609 25.697 28.4621 25.697H12.4242ZM17.8022 20.0149L16.0157 19.6574L10.9942 14.6363L12.4245 13.206L17.4447 18.2262L17.8022 20.0149ZM10.2121 13.8544L9.40204 13.0443C9.21409 12.8558 9.10604 12.5949 9.1061 12.3292C9.1061 11.7718 9.55975 11.3182 10.1171 11.3182C10.3839 11.3182 10.6442 11.4262 10.8322 11.6136L11.6425 12.424L10.2121 13.8544ZM28.4621 14.6364H16.2954C15.9897 14.6364 15.7424 14.389 15.7424 14.0833C15.7424 13.7776 15.9897 13.5303 16.2954 13.5303H28.4621C28.7678 13.5303 29.0152 13.7776 29.0152 14.0833C29.0151 14.3891 28.7678 14.6364 28.4621 14.6364ZM21.8258 20.1667H28.4621C28.7678 20.1667 29.0152 20.414 29.0152 20.7197C29.0152 21.0254 28.7678 21.2728 28.4621 21.2728H21.8258C21.5201 21.2728 21.2727 21.0254 21.2727 20.7197C21.2727 20.414 21.5201 20.1667 21.8258 20.1667Z" fill="#323945"/>
</svg>
