<svg width="41" height="41" viewBox="0 0 41 41" fill="none" xmlns="http://www.w3.org/2000/svg">
<path fill-rule="evenodd" clip-rule="evenodd" d="M28.7932 13.0955L28.8174 13.1858C30.0003 13.3852 31.0354 14.2374 31.3662 15.4719L32.9879 21.524C33.2541 22.5176 33.0063 23.5199 32.4289 24.2555L32.9936 26.3632C33.3083 27.5375 32.625 28.721 31.4507 29.0356L30.8485 29.197C29.6742 29.5116 28.4907 28.8283 28.1761 27.654L27.7727 26.1485L14.5243 29.6984L14.9277 31.2039C15.2424 32.3782 14.5591 33.5617 13.3848 33.8764L12.7826 34.0377C11.6083 34.3524 10.4248 33.6691 10.1101 32.4948L9.54536 30.3871C9.53591 30.3518 9.53679 30.3138 9.53752 30.2823C9.53803 30.26 9.53847 30.241 9.53513 30.2285C8.66727 29.8801 7.94564 29.2344 7.69553 28.301L6.08195 22.279C5.78343 21.165 6.11939 20.01 6.88553 19.2561C6.83122 19.1738 6.81508 19.1136 6.82099 19.0152L6.52792 12.3812C6.45789 10.9155 7.42616 9.59107 8.84132 9.21188L22.1499 5.64586C23.5651 5.26666 25.0658 5.92951 25.738 7.23388L28.7932 13.0955ZM9.17211 10.4464C8.32903 10.6723 7.76775 11.4681 7.80492 12.3295L8.06731 18.4876L8.27808 18.4311L27.4581 13.2919L24.6063 7.82759C24.2379 7.05496 23.3238 6.65446 22.4807 6.88036L9.17211 10.4464ZM13.054 32.6419C13.5658 32.5047 13.8524 32.0084 13.7152 31.4965L13.3118 29.991L11.8063 30.3944C11.5052 30.4751 11.188 30.4956 10.8627 30.4859L11.3064 32.142C11.4436 32.6538 11.9399 32.9404 12.4518 32.8032L13.054 32.6419ZM31.1199 27.8011C31.6318 27.664 31.9183 27.1676 31.7812 26.6558L31.3617 25.0901C31.1891 25.1686 30.9864 25.2552 30.7756 25.3116L28.969 25.7957L29.3724 27.3012C29.5095 27.8131 30.0059 28.0996 30.5177 27.9625L31.1199 27.8011ZM30.4529 24.1072C31.4465 23.841 32.0416 22.8102 31.7754 21.8166L30.1618 15.7946C29.8956 14.801 28.8648 14.2058 27.8711 14.4721L8.60079 19.6355C7.60717 19.9018 7.01203 20.9326 7.27828 21.9262L8.89186 27.9482C9.1581 28.9418 10.5201 29.4482 11.4836 29.19L30.4529 24.1072ZM14.4803 22.7124C14.2135 22.7839 13.9394 22.6256 13.8679 22.3589L13.6091 21.393C13.5376 21.1262 13.6959 20.852 13.9626 20.7806L23.6219 18.1924C23.8886 18.1209 24.1628 18.2792 24.2343 18.5459L24.4931 19.5119C24.5646 19.7786 24.4063 20.0528 24.1395 20.1242L14.4803 22.7124ZM27.9432 22.7285C28.0861 23.262 27.7695 23.8103 27.2361 23.9533C26.7026 24.0962 26.1543 23.7796 26.0113 23.2462C25.8684 22.7127 26.185 22.1644 26.7184 22.0214C27.2519 21.8785 27.8002 22.1951 27.9432 22.7285ZM13.7131 27.5767C14.2466 27.4338 14.5632 26.8855 14.4202 26.352C14.2773 25.8185 13.7289 25.5019 13.1955 25.6449C12.662 25.7878 12.3454 26.3362 12.4884 26.8696C12.6313 27.4031 13.1797 27.7197 13.7131 27.5767ZM15.8691 25.9638C15.7976 25.697 15.9559 25.4229 16.2227 25.3514L23.9501 23.2808C24.2168 23.2094 24.491 23.3677 24.5624 23.6344C24.6339 23.9011 24.4756 24.1753 24.2089 24.2468L16.4815 26.3173C16.2148 26.3888 15.9406 26.2305 15.8691 25.9638ZM11.229 24.1013C12.0292 23.8868 12.504 23.0643 12.2896 22.2641C12.0752 21.4639 11.2527 20.9891 10.4525 21.2035C9.6523 21.4179 9.17742 22.2404 9.39183 23.0406C9.60625 23.8408 10.4288 24.3157 11.229 24.1013ZM27.6497 19.7013C28.4499 19.4869 28.9248 18.6644 28.7104 17.8642C28.4959 17.064 27.6734 16.5891 26.8732 16.8036C26.073 17.018 25.5982 17.8405 25.8126 18.6407C26.027 19.4409 26.8495 19.9157 27.6497 19.7013Z" fill="#323945"/>
</svg>
