<svg width="41" height="41" viewBox="0 0 41 41" fill="none" xmlns="http://www.w3.org/2000/svg">
<path d="M33.7691 31.6738L27.4496 25.3543C29.1448 23.4054 30.1712 20.8626 30.1712 18.0834C30.1712 11.9656 25.1951 6.99535 19.0831 6.99535C12.9654 6.99535 7.99512 11.9714 7.99512 18.0834C7.99512 24.1953 12.9712 29.1714 19.0831 29.1714C21.8624 29.1714 24.4052 28.145 26.3541 26.4498L32.6736 32.7694C32.8235 32.9193 33.0253 33 33.2214 33C33.4174 33 33.6192 32.925 33.7691 32.7694C34.069 32.4695 34.069 31.9737 33.7691 31.6738ZM9.54618 18.0834C9.54618 12.8248 13.8246 8.55217 19.0774 8.55217C24.336 8.55217 28.6086 12.8305 28.6086 18.0834C28.6086 23.3362 24.336 27.6203 19.0774 27.6203C13.8246 27.6203 9.54618 23.342 9.54618 18.0834Z" fill="#323945"/>
</svg>
