<svg width="41" height="41" viewBox="0 0 41 41" fill="none" xmlns="http://www.w3.org/2000/svg">
<path d="M33.3314 15.275C32.9647 14.9083 32.3689 14.9083 32.0022 15.275L20.3146 26.9855L8.60417 15.275C8.23751 14.9083 7.64167 14.9083 7.275 15.275C6.90833 15.6417 6.90833 16.2375 7.275 16.6042L19.6271 28.9563C19.8105 29.1397 20.0396 29.2313 20.2917 29.2313C20.5209 29.2313 20.773 29.1397 20.9563 28.9563L33.3085 16.6042C33.698 16.2375 33.698 15.6417 33.3314 15.275Z" fill="#323945"/>
</svg>
