<svg width="23" height="22" viewBox="0 0 23 22" fill="none" xmlns="http://www.w3.org/2000/svg">
<path fill-rule="evenodd" clip-rule="evenodd" d="M21.3571 7.84539V7.92768C22.3155 8.36658 23 9.32668 23 10.4514V15.9651C23 16.8703 22.5619 17.6658 21.9048 18.1596V20.0798C21.9048 21.1496 21.056 22 19.9881 22H19.4405C18.3726 22 17.5238 21.1496 17.5238 20.0798V18.7082H5.47619V20.0798C5.47619 21.1496 4.62738 22 3.55952 22H3.0119C1.94405 22 1.09524 21.1496 1.09524 20.0798V18.1596C1.09524 18.1275 1.10463 18.0953 1.11242 18.0687C1.11792 18.0499 1.12262 18.0338 1.12262 18.0224C0.465476 17.5287 0 16.8155 0 15.9651V10.4788C0 9.46384 0.547619 8.5586 1.36905 8.09227C1.34167 8.00998 1.34167 7.95511 1.36905 7.87282L2.62857 2.16708C2.90238 0.905237 4.025 0 5.3119 0H17.4143C18.7012 0 19.8238 0.905237 20.0976 2.16708L21.3571 7.84539ZM5.3119 1.12469C4.54524 1.12469 3.88809 1.67332 3.72381 2.41397L2.54643 7.70823H2.73809H20.1798L19.0024 2.41397C18.8655 1.67332 18.181 1.12469 17.4143 1.12469H5.3119ZM3.55952 20.8753C4.025 20.8753 4.38095 20.5187 4.38095 20.0524V18.6808H3.0119C2.73809 18.6808 2.46429 18.6259 2.19048 18.5436V20.0524C2.19048 20.5187 2.54643 20.8753 3.0119 20.8753H3.55952ZM19.9881 20.8753C20.4536 20.8753 20.8095 20.5187 20.8095 20.0524V18.6259C20.6452 18.6534 20.4536 18.6808 20.2619 18.6808H18.619V20.0524C18.619 20.5187 18.975 20.8753 19.4405 20.8753H19.9881ZM20.2619 17.5835C21.1655 17.5835 21.9048 16.8429 21.9048 15.9377V10.4514C21.9048 9.54613 21.1655 8.80549 20.2619 8.80549H2.73809C1.83452 8.80549 1.09524 9.54613 1.09524 10.4514V15.9377C1.09524 16.8429 2.13571 17.5835 3.0119 17.5835H20.2619ZM7.02705 12.82C6.75091 12.82 6.52705 12.5961 6.52705 12.32V11.44C6.52705 11.1639 6.75091 10.94 7.02705 10.94H15.8109C16.087 10.94 16.3109 11.1639 16.3109 11.44V12.32C16.3109 12.5961 16.087 12.82 15.8109 12.82H7.02705ZM18.446 15.84C18.446 16.326 18.0527 16.72 17.5676 16.72C17.0825 16.72 16.6892 16.326 16.6892 15.84C16.6892 15.354 17.0825 14.96 17.5676 14.96C18.0527 14.96 18.446 15.354 18.446 15.84ZM5.27029 16.72C5.7554 16.72 6.14867 16.326 6.14867 15.84C6.14867 15.354 5.7554 14.96 5.27029 14.96C4.78517 14.96 4.3919 15.354 4.3919 15.84C4.3919 16.326 4.78517 16.72 5.27029 16.72ZM7.40543 15.84C7.40543 15.5639 7.62929 15.34 7.90543 15.34H14.9325C15.2086 15.34 15.4325 15.5639 15.4325 15.84C15.4325 16.1161 15.2086 16.34 14.9325 16.34H7.90543C7.62929 16.34 7.40543 16.1161 7.40543 15.84ZM3.95271 13.2C4.68039 13.2 5.27029 12.609 5.27029 11.88C5.27029 11.151 4.68039 10.56 3.95271 10.56C3.22504 10.56 2.63514 11.151 2.63514 11.88C2.63514 12.609 3.22504 13.2 3.95271 13.2ZM18.8852 13.2C19.6129 13.2 20.2028 12.609 20.2028 11.88C20.2028 11.151 19.6129 10.56 18.8852 10.56C18.1575 10.56 17.5676 11.151 17.5676 11.88C17.5676 12.609 18.1575 13.2 18.8852 13.2Z" fill="white"/>
</svg>
