<svg width="41" height="41" viewBox="0 0 41 41" fill="none" xmlns="http://www.w3.org/2000/svg">
<path d="M35.125 6.625C35.125 6.27969 34.8453 6 34.5 6H23.1875C22.8422 6 22.5625 6.27969 22.5625 6.625V17.9375C22.5625 18.2828 22.8422 18.5625 23.1875 18.5625H34.5C34.8453 18.5625 35.125 18.2828 35.125 17.9375V6.625ZM33.875 17.3125H23.8125V7.25H33.875V17.3125Z" fill="#323945"/>
<path d="M19.5625 6.625C19.5625 6.27969 19.2828 6 18.9375 6H7.625C7.27969 6 7 6.27969 7 6.625V17.9375C7 18.2828 7.27969 18.5625 7.625 18.5625H18.9375C19.2828 18.5625 19.5625 18.2828 19.5625 17.9375V6.625ZM18.3125 17.3125H8.25V7.25H18.3125V17.3125Z" fill="#323945"/>
<path d="M35.125 22.1875C35.125 21.8422 34.8453 21.5625 34.5 21.5625H23.1875C22.8422 21.5625 22.5625 21.8422 22.5625 22.1875V33.5C22.5625 33.8453 22.8422 34.125 23.1875 34.125H34.5C34.8453 34.125 35.125 33.8453 35.125 33.5V22.1875ZM33.875 32.8125H23.8125V22.8125H33.875V32.8125Z" fill="#323945"/>
<path d="M19.5625 22.1875C19.5625 21.8422 19.2828 21.5625 18.9375 21.5625H7.625C7.27969 21.5625 7 21.8422 7 22.1875V33.5C7 33.8453 7.27969 34.125 7.625 34.125H18.9375C19.2828 34.125 19.5625 33.8453 19.5625 33.5V22.1875ZM18.3125 32.8125H8.25V22.8125H18.3125V32.8125Z" fill="#323945"/>
</svg>
