<svg width="13" height="16" viewBox="0 0 13 16" fill="none" xmlns="http://www.w3.org/2000/svg">
<path d="M8.64373 0H0V16H12.5333V3.8896L8.64373 0ZM8.8 0.9104L11.6229 3.73333H8.8V0.9104ZM0.533333 15.4667V0.533333H8.26667V4.26667H12V15.4667H0.533333Z" fill="#5D697E"/>
<path d="M2.66681 4.53333H5.06681C5.21401 4.53333 5.33348 4.41413 5.33348 4.26667C5.33348 4.1192 5.21401 4 5.06681 4H2.66681C2.51961 4 2.40015 4.1192 2.40015 4.26667C2.40015 4.41413 2.51961 4.53333 2.66681 4.53333Z" fill="#5D697E"/>
<path d="M7.20015 9.86523H2.66681C2.51961 9.86523 2.40015 9.98443 2.40015 10.1319C2.40015 10.2794 2.51961 10.3986 2.66681 10.3986H7.20015C7.34735 10.3986 7.46681 10.2794 7.46681 10.1319C7.46681 9.98443 7.34735 9.86523 7.20015 9.86523Z" fill="#5D697E"/>
<path d="M9.86661 8H7.99994C7.85274 8 7.73328 8.1192 7.73328 8.26667C7.73328 8.41413 7.85274 8.53333 7.99994 8.53333H9.86661C10.0138 8.53333 10.1333 8.41413 10.1333 8.26667C10.1333 8.1192 10.0138 8 9.86661 8Z" fill="#5D697E"/>
<path d="M2.66681 6.6681H4.00015C4.14735 6.6681 4.26681 6.5489 4.26681 6.40143C4.26681 6.25397 4.14735 6.13477 4.00015 6.13477H2.66681C2.51961 6.13477 2.40015 6.25397 2.40015 6.40143C2.40015 6.5489 2.51961 6.6681 2.66681 6.6681Z" fill="#5D697E"/>
<path d="M6.66681 6.6681H8.53348C8.68068 6.6681 8.80015 6.5489 8.80015 6.40143C8.80015 6.25397 8.68068 6.13477 8.53348 6.13477H6.66681C6.51961 6.13477 6.40015 6.25397 6.40015 6.40143C6.40015 6.5489 6.51961 6.6681 6.66681 6.6681Z" fill="#5D697E"/>
<path d="M5.06665 6.402C5.06665 6.47134 5.09598 6.54067 5.14398 6.59134C5.19465 6.63934 5.26398 6.66867 5.33332 6.66867C5.40265 6.66867 5.47198 6.63934 5.52265 6.59134C5.57065 6.54067 5.59998 6.47134 5.59998 6.402C5.59998 6.3324 5.57065 6.26307 5.52265 6.21267C5.42398 6.11401 5.24532 6.11401 5.14398 6.21267C5.09598 6.26307 5.06665 6.3324 5.06665 6.402Z" fill="#5D697E"/>
<path d="M3.99994 8C3.85274 8 3.73328 8.1192 3.73328 8.26667C3.73328 8.41413 3.85274 8.53333 3.99994 8.53333H6.66661C6.81381 8.53333 6.93328 8.41413 6.93328 8.26667C6.93328 8.1192 6.81381 8 6.66661 8H3.99994Z" fill="#5D697E"/>
<path d="M2.66681 8.53391C2.73615 8.53391 2.80548 8.50457 2.85615 8.45657C2.90415 8.40591 2.93348 8.33657 2.93348 8.26724C2.93348 8.19764 2.90415 8.12831 2.85615 8.07791C2.75748 7.97924 2.57615 7.97924 2.47748 8.07791C2.42948 8.12831 2.40015 8.19497 2.40015 8.26724C2.40015 8.33657 2.42948 8.40591 2.47748 8.45657C2.52815 8.50457 2.59748 8.53391 2.66681 8.53391Z" fill="#5D697E"/>
<path d="M9.86661 11.7344H7.99994C7.85274 11.7344 7.73328 11.8536 7.73328 12.001C7.73328 12.1485 7.85274 12.2677 7.99994 12.2677H9.86661C10.0138 12.2677 10.1333 12.1485 10.1333 12.001C10.1333 11.8536 10.0138 11.7344 9.86661 11.7344Z" fill="#5D697E"/>
<path d="M6.66661 11.7344H3.99994C3.85274 11.7344 3.73328 11.8536 3.73328 12.001C3.73328 12.1485 3.85274 12.2677 3.99994 12.2677H6.66661C6.81381 12.2677 6.93328 12.1485 6.93328 12.001C6.93328 11.8536 6.81381 11.7344 6.66661 11.7344Z" fill="#5D697E"/>
<path d="M2.47748 11.81C2.42948 11.858 2.40015 11.9271 2.40015 11.9993C2.40015 12.0713 2.42681 12.138 2.47748 12.1887C2.52815 12.2367 2.59748 12.266 2.66681 12.266C2.73881 12.266 2.80548 12.2367 2.85615 12.1887C2.90415 12.138 2.93348 12.0687 2.93348 11.9993C2.93348 11.9271 2.90415 11.8604 2.85615 11.8127C2.75748 11.7113 2.57881 11.7113 2.47748 11.81Z" fill="#5D697E"/>
<path d="M9.67719 6.21267C9.62919 6.26307 9.59985 6.3324 9.59985 6.402C9.59985 6.47134 9.62919 6.54067 9.67719 6.59134C9.72785 6.63934 9.79719 6.66867 9.86652 6.66867C9.93585 6.66867 10.0052 6.63934 10.0559 6.59134C10.1065 6.54067 10.1332 6.47134 10.1332 6.402C10.1332 6.3324 10.1065 6.26307 10.0559 6.21267C9.95452 6.11401 9.77852 6.11401 9.67719 6.21267Z" fill="#5D697E"/>
<path d="M8.72272 10.3238C8.77072 10.2731 8.80006 10.2038 8.80006 10.1344C8.80006 10.0648 8.77072 9.99549 8.72272 9.94509C8.62139 9.84643 8.44272 9.84643 8.34406 9.94509C8.29606 9.99549 8.26672 10.0648 8.26672 10.1344C8.26672 10.2038 8.29606 10.2731 8.34406 10.3238C8.39472 10.3742 8.46139 10.4011 8.53339 10.4011C8.60539 10.4011 8.67206 10.3718 8.72272 10.3238Z" fill="#5D697E"/>
<path d="M9.67719 9.94509C9.62919 9.99549 9.59985 10.0648 9.59985 10.1344C9.59985 10.2038 9.62919 10.2731 9.67719 10.3238C9.72785 10.3718 9.79452 10.4011 9.86652 10.4011C9.93852 10.4011 10.0052 10.3718 10.0559 10.3238C10.1039 10.2731 10.1332 10.2038 10.1332 10.1344C10.1332 10.0648 10.1039 9.99549 10.0559 9.94509C9.95719 9.84643 9.77585 9.84643 9.67719 9.94509Z" fill="#5D697E"/>
<g clip-path="url(#clip0)">
<ellipse cx="8.93335" cy="12" rx="4" ry="4" fill="#EB5757"/>
<path d="M10.4267 10.5061C10.3665 10.4459 10.2693 10.4459 10.2091 10.5061L8.93328 11.7819L7.65743 10.5061C7.59728 10.4459 7.50004 10.4459 7.43989 10.5061C7.37974 10.5662 7.37974 10.6634 7.43989 10.7236L8.71574 11.9994L7.43989 13.2753C7.37974 13.3354 7.37974 13.4327 7.43989 13.4928C7.46989 13.5228 7.50928 13.5379 7.54866 13.5379C7.58804 13.5379 7.62743 13.5228 7.65743 13.4928L8.93328 12.217L10.2091 13.4928C10.2391 13.5228 10.2785 13.5379 10.3179 13.5379C10.3573 13.5379 10.3967 13.5228 10.4267 13.4928C10.4868 13.4327 10.4868 13.3354 10.4267 13.2753L9.15081 11.9994L10.4267 10.7236C10.4868 10.6634 10.4868 10.5662 10.4267 10.5061Z" fill="white"/>
</g>
<defs>
<clipPath id="clip0">
<rect width="8" height="8" fill="white" transform="translate(4.93335 8)"/>
</clipPath>
</defs>
</svg>
