<svg width="16" height="15" viewBox="0 0 16 15" fill="none" xmlns="http://www.w3.org/2000/svg">
<path d="M15.4071 7.16634C15.1546 7.16634 14.9526 7.36831 14.9526 7.62077V11.7545C14.9526 12.8788 14.037 13.791 12.9161 13.791H2.94542C1.82111 13.791 0.908872 12.8754 0.908872 11.7545V7.55345C0.908872 7.30099 0.706901 7.09901 0.454436 7.09901C0.201972 7.09901 0 7.30099 0 7.55345V11.7545C0 13.3803 1.32291 14.6999 2.94542 14.6999H12.9161C14.542 14.6999 15.8615 13.377 15.8615 11.7545V7.62077C15.8615 7.37168 15.6595 7.16634 15.4071 7.16634Z" fill="white"/>
<path d="M7.61097 11.0916C7.69849 11.1791 7.81631 11.2263 7.93076 11.2263C8.04521 11.2263 8.16302 11.1825 8.25055 11.0916L11.1387 8.20341C11.3171 8.02501 11.3171 7.73888 11.1387 7.56047C10.9603 7.38206 10.6742 7.38206 10.4958 7.56047L8.38519 9.67444V0.454436C8.38519 0.201972 8.18322 0 7.93076 0C7.67829 0 7.47632 0.201972 7.47632 0.454436V9.67444L5.36235 7.56047C5.18394 7.38206 4.89782 7.38206 4.71941 7.56047C4.541 7.73888 4.541 8.02501 4.71941 8.20341L7.61097 11.0916Z" fill="white"/>
</svg>
