<svg width="21" height="22" viewBox="0 0 21 22" fill="none" xmlns="http://www.w3.org/2000/svg">
<g clip-path="url(#clip0)">
<path d="M9.69009 14.9211C9.85046 14.7531 9.85046 14.4811 9.69009 14.3131C9.52956 14.1456 9.2695 14.1456 9.1088 14.3131C8.9486 14.4811 8.9486 14.7531 9.1088 14.9211C9.2695 15.0886 9.52956 15.0886 9.69009 14.9211Z" fill="#323945"/>
<path d="M7.74451 4.72522C7.74451 7.33071 9.77185 9.45061 12.2638 9.45061C14.7557 9.45061 16.783 7.33071 16.783 4.72522C16.783 2.11974 14.7557 0 12.2638 0C9.77185 0 7.74451 2.11974 7.74451 4.72522ZM15.9614 4.72522C15.9614 6.85704 14.3027 8.5914 12.2638 8.5914C10.2249 8.5914 8.5661 6.85704 8.5661 4.72522C8.5661 2.59357 10.2249 0.859208 12.2638 0.859208C14.3027 0.859208 15.9614 2.59357 15.9614 4.72522Z" fill="#323945"/>
<path d="M4.75288 21.8729C4.91213 22.0407 5.17138 22.0426 5.33272 21.8764L7.32458 19.8247C7.66298 19.4708 7.76588 18.947 7.61707 18.4916L8.04553 18.0596C8.27621 17.8266 8.57993 17.6982 8.901 17.6982H14.3627C15.3317 17.6982 16.2475 17.3091 16.9418 16.6027C16.9704 16.5736 16.7249 16.8759 20.6679 11.9486C21.2527 11.2252 21.1652 10.1389 20.4727 9.52676C19.7845 8.92033 18.7536 9.00745 18.1672 9.71844L15.7428 12.3238C15.4367 11.9298 14.9699 11.6843 14.4655 11.6843H9.88409C9.23217 11.3991 8.54044 11.2547 7.82672 11.2547C5.84834 11.2547 4.12087 12.2101 3.1938 14.0014C2.80323 13.924 2.39131 14.0475 2.09497 14.3574L0.140507 16.407C-0.0190611 16.5743 -0.0193821 16.845 0.139864 17.0129L4.75288 21.8729ZM7.82656 12.1138C8.45584 12.1138 9.06425 12.2462 9.63526 12.5074C9.68727 12.5312 9.7433 12.5435 9.79997 12.5435H14.4655C14.9109 12.5435 15.2872 12.9233 15.2872 13.4025C15.2872 13.8763 14.9187 14.2617 14.4655 14.2617H11.1134C10.8866 14.2617 10.7026 14.4541 10.7026 14.6912C10.7026 14.9286 10.8866 15.1208 11.1134 15.1208H14.4655C15.3717 15.1208 16.1088 14.35 16.1088 13.4025C16.1088 13.327 16.1037 13.2521 16.0944 13.1779C18.4396 10.6574 18.7703 10.3032 18.7844 10.2856C19.0772 9.92422 19.597 9.8784 19.9428 10.1832C20.2889 10.4892 20.3327 11.0323 20.0391 11.3957L16.3541 16.0018C15.816 16.5419 15.1095 16.8392 14.3627 16.8392H8.901C8.36579 16.8392 7.85915 17.0532 7.47484 17.4414L7.12568 17.7937L3.90704 14.4286C4.65929 12.953 6.07084 12.1138 7.82656 12.1138ZM2.67641 14.9645C2.8119 14.8228 3.01995 14.7973 3.18513 14.9041C3.25625 14.9494 3.05205 14.755 6.74362 18.6095C6.90784 18.7812 6.89901 19.0548 6.74587 19.2149L5.04777 20.964L1.0109 16.7109L2.67641 14.9645Z" fill="#323945"/>
<path d="M11.7708 2.14844V2.65181C11.2925 2.82906 10.949 3.30658 10.949 3.86668C10.949 4.57718 11.5019 5.15541 12.1816 5.15541C12.4081 5.15541 12.5923 5.3481 12.5923 5.58493C12.5923 5.82176 12.4081 6.01445 12.1816 6.01445C12.0061 6.01445 11.8165 5.89914 11.6481 5.6895C11.502 5.50789 11.2429 5.48456 11.0692 5.63713C10.8955 5.78987 10.8731 6.06078 11.0191 6.24239C11.2388 6.51547 11.497 6.70581 11.7708 6.80182V7.30318C11.7708 7.54051 11.9547 7.7327 12.1816 7.7327C12.4084 7.7327 12.5923 7.54051 12.5923 7.30318V6.79981C13.0706 6.62239 13.4141 6.14487 13.4141 5.58493C13.4141 4.87427 12.8612 4.2962 12.1816 4.2962C11.955 4.2962 11.7708 4.10352 11.7708 3.86668C11.7708 3.62985 11.955 3.437 12.1816 3.437C12.3272 3.437 12.4808 3.51471 12.6259 3.66158C12.789 3.82657 13.0491 3.82204 13.2069 3.65167C13.3647 3.48114 13.3603 3.20923 13.1974 3.04424C12.9889 2.83325 12.7802 2.71391 12.5923 2.64879V2.14844C12.5923 1.9111 12.4084 1.71875 12.1816 1.71875C11.9547 1.71875 11.7708 1.9111 11.7708 2.14844Z" fill="#323945"/>
</g>
<defs>
<clipPath id="clip0">
<rect width="21" height="22" fill="white"/>
</clipPath>
</defs>
</svg>
