<svg width="34" height="34" viewBox="0 0 34 34" fill="none" xmlns="http://www.w3.org/2000/svg">
<path d="M24.0884 5.09681C23.5449 4.77702 22.8448 4.95877 22.5251 5.50237C22.2054 6.04598 22.3869 6.74596 22.9307 7.06566C26.4992 9.16433 28.7161 13.0367 28.7161 17.1714C28.7161 23.6318 23.4604 28.8875 17 28.8875C10.5398 28.8875 5.28402 23.6316 5.28402 17.1714C5.28402 13.0367 7.50077 9.16433 11.0694 7.06566C11.6131 6.74605 11.7947 6.04606 11.475 5.50237C11.1554 4.95868 10.4555 4.77728 9.91168 5.09681C5.64845 7.60412 3.00009 12.2308 3.00009 17.1714C3.00009 24.8912 9.28042 31.1715 17.0001 31.1715C24.7199 31.1715 31.0002 24.8912 31 17.1714C31 12.2309 28.3516 7.60412 24.0884 5.09681Z" fill="white"/>
<path d="M17 1.64754C16.3692 1.64754 15.8579 2.15892 15.8579 2.78959V17.1715C15.8579 17.8022 16.3692 18.3135 17 18.3135C17.6307 18.3135 18.142 17.8022 18.142 17.1715V2.78959C18.142 2.15901 17.6307 1.64754 17 1.64754Z" fill="white"/>
</svg>
