<svg width="41" height="41" viewBox="0 0 41 41" fill="none" xmlns="http://www.w3.org/2000/svg">
<path fill-rule="evenodd" clip-rule="evenodd" d="M10.9565 8H29.0435C31.2252 8 33 9.77476 33.0001 11.9565V24.3913C33.0001 26.3809 31.5237 28.0324 29.6088 28.3082V33.4348C29.6088 33.6631 29.4708 33.87 29.2594 33.957C29.1893 33.9853 29.1158 34 29.0435 34C28.8966 34 28.7519 33.9423 28.6433 33.8349L23.1573 28.3478H10.9565C8.77476 28.3478 7 26.573 7 24.3913V11.9565C7 9.77476 8.77476 8 10.9565 8ZM29.0435 27.2173C30.6012 27.2173 31.8695 25.9502 31.8695 24.3913V11.9565C31.8695 10.3977 30.6012 9.13047 29.0435 9.13047H10.9565C9.39882 9.13047 8.13047 10.3977 8.13047 11.9565V24.3913C8.13047 25.9501 9.39882 27.2173 10.9565 27.2173H23.3913C23.5416 27.2173 23.6852 27.2773 23.7915 27.3824L28.4782 32.0703V27.7826C28.4782 27.4706 28.7315 27.2173 29.0435 27.2173ZM20 21.5652C19.0651 21.5652 18.3043 22.326 18.3043 23.2609C18.3043 24.1957 19.0651 24.9565 20 24.9565C20.9349 24.9565 21.6956 24.1957 21.6956 23.2609C21.6956 22.326 20.9349 21.5652 20 21.5652ZM20.5652 11.3913C21.0343 11.3913 21.4865 11.588 21.8064 11.9316C22.1263 12.2753 22.2903 12.7399 22.2564 13.2079L21.7691 18.7945C21.7047 19.7101 20.9269 20.4347 20 20.4347C19.0651 20.4347 18.2874 19.7102 18.2218 18.7855L17.7436 13.2158C17.7108 12.7388 17.8748 12.2742 18.1947 11.9316C18.5146 11.588 18.9657 11.3913 19.4348 11.3913H20.5652ZM20.6421 18.7063L21.1304 13.1186C21.1406 12.9683 21.0875 12.8168 20.9789 12.7015C20.8704 12.5862 20.7235 12.5217 20.5652 12.5217H19.4347C19.2765 12.5217 19.1295 12.5862 19.021 12.7015C18.9125 12.8168 18.8594 12.9683 18.8707 13.1277L19.3477 18.6973C19.3726 19.0421 19.6541 19.3043 19.991 19.3043C20.3358 19.3043 20.6184 19.0421 20.6421 18.7063Z" fill="#323945"/>
</svg>
