<svg width="25" height="25" viewBox="0 0 25 25" fill="none" xmlns="http://www.w3.org/2000/svg">
<path d="M21.5108 4.76176C20.1712 4.76176 19.0813 5.85162 19.0813 7.19124C19.0813 7.67983 19.2268 8.13482 19.476 8.51616L16.8512 11.1409C16.4698 10.8917 16.0149 10.7463 15.5263 10.7463C15.02 10.7463 14.5494 10.9021 14.1598 11.1682L11.508 8.51598C11.7572 8.13464 11.9025 7.6797 11.9025 7.19119C11.9025 5.85157 10.8127 4.76172 9.47307 4.76172C8.13344 4.76172 7.04359 5.85157 7.04359 7.19119C7.04359 7.6797 7.18901 8.13451 7.43807 8.51585L4.81321 11.1407C4.43192 10.8916 3.97702 10.7463 3.48856 10.7463C2.14893 10.7463 1.05908 11.8362 1.05908 13.1758C1.05908 14.5154 2.14893 15.6053 3.48856 15.6053C4.82818 15.6053 5.91803 14.5154 5.91803 13.1758C5.91803 12.6872 5.77257 12.2322 5.52338 11.8508L8.14815 9.22606C8.52953 9.47525 8.98452 9.62071 9.47311 9.62071C9.96166 9.62071 10.4166 9.47525 10.798 9.22606L13.4645 11.8929C13.2318 12.2655 13.0968 12.7051 13.0968 13.1757C13.0968 14.5154 14.1867 15.6052 15.5263 15.6052C16.8659 15.6052 17.9558 14.5154 17.9558 13.1757C17.9558 12.6872 17.8104 12.2324 17.5613 11.8511L20.1862 9.22619C20.5676 9.47529 21.0224 9.62067 21.5109 9.62067C22.8505 9.62067 23.9403 8.53082 23.9403 7.19119C23.9403 5.85153 22.8504 4.76176 21.5108 4.76176ZM3.48856 14.601C2.70264 14.601 2.06326 13.9617 2.06326 13.1758C2.06326 12.3899 2.70264 11.7505 3.48856 11.7505C4.27443 11.7505 4.91385 12.3899 4.91385 13.1758C4.91385 13.9617 4.27447 14.601 3.48856 14.601ZM9.47311 8.61649C8.68724 8.61649 8.04782 7.97711 8.04782 7.19119C8.04782 6.40532 8.6872 5.7659 9.47311 5.7659C10.259 5.7659 10.8984 6.40528 10.8984 7.19119C10.8984 7.97711 10.259 8.61649 9.47311 8.61649ZM15.5263 14.601C14.7404 14.601 14.101 13.9617 14.101 13.1757C14.101 12.3898 14.7403 11.7505 15.5263 11.7505C16.3121 11.7505 16.9516 12.3898 16.9516 13.1757C16.9515 13.9617 16.3121 14.601 15.5263 14.601ZM21.5108 8.61649C20.7249 8.61649 20.0855 7.97711 20.0855 7.19119C20.0855 6.40532 20.7249 5.7659 21.5108 5.7659C22.2967 5.7659 22.9361 6.40528 22.9361 7.19119C22.9361 7.97711 22.2967 8.61649 21.5108 8.61649Z" fill="#323945"/>
<path d="M8.95853 10.9322C8.76243 10.7361 8.44455 10.7361 8.24846 10.9322L7.22711 11.9535C7.03106 12.1496 7.03106 12.4675 7.22716 12.6636C7.32521 12.7617 7.45369 12.8107 7.58217 12.8107C7.71066 12.8107 7.83919 12.7616 7.93719 12.6636L8.95853 11.6423C9.15468 11.4462 9.15468 11.1283 8.95853 10.9322Z" fill="#323945"/>
<path d="M17.7716 7.72516C17.5755 7.52911 17.2576 7.52911 17.0614 7.72521L16.0401 8.74655C15.8441 8.9426 15.8441 9.26053 16.0401 9.45663C16.1382 9.55463 16.2667 9.60366 16.3952 9.60366C16.5237 9.60366 16.6521 9.55459 16.7502 9.45658L17.7715 8.43524C17.9676 8.23914 17.9676 7.92121 17.7716 7.72516Z" fill="#323945"/>
<line x1="1.69043" y1="22.1191" x2="23.3095" y2="22.1191" stroke="#323945" stroke-linecap="round" stroke-linejoin="round"/>
</svg>
